{
  "manifest_version": 2,
  "name": "AAU Enhancements",
  "description": "A extension for chrome based browsers to add more enhancements to AAU site.",
  "version": "1.3.1",
  "permissions": [
    "storage",
    "webRequest",
    "webRequestBlocking",
    "https://campus.aau.at/",
    "https://*.aau.at/"
  ],
  "browser_action": {
    "default_title": "AAU Enhancements",
    "default_icon": "icon.png",
    "default_popup": "popup.html"
  },
  "browser_specific_settings": {
    "gecko": {
      "id": "aau-enhancements-th3dillidev@gmail.com",
      "update_url": "https://gitlab.com/th3dilli_aau/aau-enhancements/-/raw/main/updates.json"
    }
  },
  "content_scripts": [
    {
      "matches": [
        "https://bbb.aau.at/*"
      ],
      "run_at": "document_end",
      "js": [
        "scripts/content.js"
      ]
    },
    {
      "matches": [
        "https://*.aau.at/html5client/*"
      ],
      "run_at": "document_end",
      "js": [
        "scripts/content_bbb_live.js"
      ]
    }
  ],
  "background": {
    "scripts": [
      "scripts/background.js"
    ]
  },
  "icons": {
    "48": "icon.png",
    "128": "icon128.png"
  }
}