{
    "addons": {
        "aau-enhancements-th3dillidev@gmail.com": {
            "updates": [
                {
                    "version": "1.1",
                    "update_link": "https://gitlab.com/th3dilli_aau/aau-enhancements/-/raw/main/firefox/aau_enhancements-1.1-fx.xpi"
                },
                {
                    "version": "1.2",
                    "update_link": "https://gitlab.com/th3dilli_aau/aau-enhancements/-/raw/main/firefox/aau_enhancements-1.2-fx.xpi"
                },
                {
                    "version": "1.3",
                    "update_link": "https://gitlab.com/th3dilli_aau/aau-enhancements/-/raw/main/firefox/aau_enhancements-1.3-fx.xpi"
                },
                {
                    "version": "1.3.1",
                    "update_link": "https://gitlab.com/th3dilli_aau/aau-enhancements/-/raw/main/firefox/aau_enhancements-1.3.1-fx.xpi"
                }
            ]
        }
    }
}